{
    "items":[
        {"key":"welcome.letsPlay", "value":"A Jugar!"},
        {"key":"welcome.settings", "value":"Ajustes"},
        {"key":"welcome.scores", "value":"Puntuaciones"},
        {"key":"play.score", "value":"Puntuación:"},
        {"key":"play.level", "value":"Nivel:"},
        {"key":"about.description", "value":"\n\nDiabolique llega de la mano de \nNemezih y Fraochan\npara Githron Soft (division de juegos)\n\nNuestros agradecimientos a:\nGood Ware (por el icono de la corona)\nFreepik (por el icono del WC)\nSoulbringer (por el tema musical Stupid Melodies)"},
        {"key":"about.done", "value":"Hecho!"},
        {"key":"lose.lost", "value":"Has\n\nperdido!"},
        {"key":"lose.again", "value":"Otra vez!"},
        {"key":"lose.menu", "value":"Menú"},
        {"key":"lose.score", "value":"Puntuación:"},
        {"key":"lose.maxScore", "value":"Max.\n\nPuntuación:"},
        {"key":"settings.musicVolume", "value":"Volumen\n\nMúsica"},
        {"key":"settings.effectsVolume", "value":"Volumen\n\nEfectos"},
        {"key":"settings.difficulty", "value":"Dificultad"},
        {"key":"settings.difficulty.low", "value": "Baja"},
        {"key":"settings.difficulty.medium", "value": "Media"},
        {"key":"settings.difficulty.high", "value": "Alta"},
        {"key":"settings.done", "value":"Hecho!"},
        {"key":"Settings.about", "value":"Acerca de"}
    ]
}